%YAML 1.1
%TAG !u! tag:unity3d.com,2011:
--- !u!74 &7400000
AnimationClip:
  m_ObjectHideFlags: 0
  m_PrefabParentObject: {fileID: 0}
  m_PrefabInternal: {fileID: 0}
  m_Name: Climbing
  serializedVersion: 6
  m_Legacy: 0
  m_Compressed: 0
  m_UseHighQualityCurve: 1
  m_RotationCurves: []
  m_CompressedRotationCurves: []
  m_EulerCurves: []
  m_PositionCurves: []
  m_ScaleCurves: []
  m_FloatCurves: []
  m_PPtrCurves:
  - curve:
    - time: 0
      value: {fileID: 21300000, guid: 09d4e719e22c693448bbd35201debf3b, type: 3}
    - time: 0.083333336
      value: {fileID: 21300000, guid: 0b150e21ca400ee4ca9baa35889e80bd, type: 3}
    - time: 0.16666667
      value: {fileID: 21300000, guid: 2b76efae8a9a21546a13ef02c323bf21, type: 3}
    - time: 0.25
      value: {fileID: 21300000, guid: 09ca22fe839d4cd47ade6c7f145037ea, type: 3}
    - time: 0.33333334
      value: {fileID: 21300000, guid: 26d016401969ce649a3c50a2898946a2, type: 3}
    - time: 0.41666666
      value: {fileID: 21300000, guid: d13926dea377f6d4a9915792a65ba18c, type: 3}
    - time: 0.5
      value: {fileID: 21300000, guid: 5a0649b843bc02c47a43c84e09a4627b, type: 3}
    - time: 0.5833333
      value: {fileID: 21300000, guid: defe2fd50fc7d9f46b949f08cb198452, type: 3}
    - time: 0.6666667
      value: {fileID: 21300000, guid: a0867684e3c20b54089f25380d19eeb6, type: 3}
    - time: 0.75
      value: {fileID: 21300000, guid: 1c719b291e9928b409debe82305ab357, type: 3}
    attribute: m_Sprite
    path: 
    classID: 212
    script: {fileID: 0}
  m_SampleRate: 12
  m_WrapMode: 0
  m_Bounds:
    m_Center: {x: 0, y: 0, z: 0}
    m_Extent: {x: 0, y: 0, z: 0}
  m_ClipBindingConstant:
    genericBindings:
    - serializedVersion: 2
      path: 0
      attribute: 0
      script: {fileID: 0}
      typeID: 212
      customType: 23
      isPPtrCurve: 1
    pptrCurveMapping:
    - {fileID: 21300000, guid: 09d4e719e22c693448bbd35201debf3b, type: 3}
    - {fileID: 21300000, guid: 0b150e21ca400ee4ca9baa35889e80bd, type: 3}
    - {fileID: 21300000, guid: 2b76efae8a9a21546a13ef02c323bf21, type: 3}
    - {fileID: 21300000, guid: 09ca22fe839d4cd47ade6c7f145037ea, type: 3}
    - {fileID: 21300000, guid: 26d016401969ce649a3c50a2898946a2, type: 3}
    - {fileID: 21300000, guid: d13926dea377f6d4a9915792a65ba18c, type: 3}
    - {fileID: 21300000, guid: 5a0649b843bc02c47a43c84e09a4627b, type: 3}
    - {fileID: 21300000, guid: defe2fd50fc7d9f46b949f08cb198452, type: 3}
    - {fileID: 21300000, guid: a0867684e3c20b54089f25380d19eeb6, type: 3}
    - {fileID: 21300000, guid: 1c719b291e9928b409debe82305ab357, type: 3}
  m_AnimationClipSettings:
    serializedVersion: 2
    m_AdditiveReferencePoseClip: {fileID: 0}
    m_AdditiveReferencePoseTime: 0
    m_StartTime: 0
    m_StopTime: 0.8333333
    m_OrientationOffsetY: 0
    m_Level: 0
    m_CycleOffset: 0
    m_HasAdditiveReferencePose: 0
    m_LoopTime: 1
    m_LoopBlend: 0
    m_LoopBlendOrientation: 0
    m_LoopBlendPositionY: 0
    m_LoopBlendPositionXZ: 0
    m_KeepOriginalOrientation: 0
    m_KeepOriginalPositionY: 1
    m_KeepOriginalPositionXZ: 0
    m_HeightFromFeet: 0
    m_Mirror: 0
  m_EditorCurves: []
  m_EulerEditorCurves: []
  m_HasGenericRootTransform: 0
  m_HasMotionFloatCurves: 0
  m_GenerateMotionCurves: 0
  m_Events: []
